{
  "annotations": {
    "list": [
      {
        "builtIn": 1,
        "datasource": {
          "type": "grafana",
          "uid": "-- Grafana --"
        },
        "enable": true,
        "hide": true,
        "iconColor": "rgba(0, 211, 255, 1)",
        "name": "Annotations & Alerts",
        "type": "dashboard"
      }
    ]
  },
  "editable": true,
  "fiscalYearStartMonth": 0,
  "graphTooltip": 0,
  "id": 109,
  "links": [],
  "liveNow": false,
  "panels": [
    {
      "datasource": {
        "type": "prometheus",
        "uid": "PAE45454D0EDB9216"
      },
      "fieldConfig": {
        "defaults": {
          "color": {
            "mode": "palette-classic"
          },
          "custom": {
            "axisBorderShow": false,
            "axisCenteredZero": false,
            "axisColorMode": "text",
            "axisLabel": "",
            "axisPlacement": "auto",
            "fillOpacity": 80,
            "gradientMode": "none",
            "hideFrom": {
              "legend": false,
              "tooltip": false,
              "viz": false
            },
            "lineWidth": 1,
            "scaleDistribution": {
              "type": "linear"
            },
            "thresholdsStyle": {
              "mode": "off"
            }
          },
          "mappings": [],
          "thresholds": {
            "mode": "absolute",
            "steps": [
              {
                "color": "green",
                "value": null
              },
              {
                "color": "red",
                "value": 80
              }
            ]
          },
          "unitScale": true
        },
        "overrides": [
          {
            "matcher": {
              "id": "byName",
              "options": "temporal channels"
            },
            "properties": [
              {
                "id": "color",
                "value": {
                  "fixedColor": "semi-dark-red",
                  "mode": "fixed"
                }
              }
            ]
          }
        ]
      },
      "gridPos": {
        "h": 8,
        "w": 12,
        "x": 0,
        "y": 0
      },
      "id": 4,
      "options": {
        "barRadius": 0,
        "barWidth": 0.97,
        "fullHighlight": false,
        "groupWidth": 0.7,
        "legend": {
          "calcs": [
            "max"
          ],
          "displayMode": "list",
          "placement": "bottom",
          "showLegend": true
        },
        "orientation": "auto",
        "showValue": "auto",
        "stacking": "none",
        "tooltip": {
          "mode": "single",
          "sort": "none"
        },
        "xField": "Time",
        "xTickLabelRotation": 0,
        "xTickLabelSpacing": 100
      },
      "targets": [
        {
          "datasource": {
            "type": "prometheus",
            "uid": "PAE45454D0EDB9216"
          },
          "disableTextWrap": false,
          "editorMode": "builder",
          "expr": "max(rcc_channels_gauge{namespace=\"$namespace\", classifier=\"effective_complete\"})",
          "format": "time_series",
          "fullMetaSearch": false,
          "hide": false,
          "includeNullMetadata": true,
          "instant": false,
          "legendFormat": "active channels (complete)",
          "range": true,
          "refId": "C",
          "useBackend": false
        },
        {
          "datasource": {
            "type": "prometheus",
            "uid": "PAE45454D0EDB9216"
          },
          "disableTextWrap": false,
          "editorMode": "builder",
          "expr": "max(rcc_channels_gauge{namespace=\"$namespace\", classifier=\"effective\"})",
          "fullMetaSearch": false,
          "hide": false,
          "includeNullMetadata": true,
          "legendFormat": "active channels",
          "range": true,
          "refId": "B",
          "useBackend": false
        },
        {
          "datasource": {
            "type": "prometheus",
            "uid": "PAE45454D0EDB9216"
          },
          "disableTextWrap": false,
          "editorMode": "builder",
          "expr": "max(rcc_channels_gauge{namespace=\"$namespace\", classifier=\"tmp\"})",
          "fullMetaSearch": false,
          "includeNullMetadata": true,
          "legendFormat": "temporal channels",
          "range": true,
          "refId": "A",
          "useBackend": false
        }
      ],
      "title": "Channels",
      "type": "barchart"
    },
    {
      "datasource": {
        "type": "prometheus",
        "uid": "PAE45454D0EDB9216"
      },
      "fieldConfig": {
        "defaults": {
          "color": {
            "mode": "palette-classic"
          },
          "custom": {
            "axisBorderShow": false,
            "axisCenteredZero": false,
            "axisColorMode": "text",
            "axisLabel": "",
            "axisPlacement": "auto",
            "barAlignment": 0,
            "drawStyle": "line",
            "fillOpacity": 0,
            "gradientMode": "none",
            "hideFrom": {
              "legend": false,
              "tooltip": false,
              "viz": false
            },
            "insertNulls": false,
            "lineInterpolation": "linear",
            "lineWidth": 1,
            "pointSize": 5,
            "scaleDistribution": {
              "type": "linear"
            },
            "showPoints": "auto",
            "spanNulls": false,
            "stacking": {
              "group": "A",
              "mode": "none"
            },
            "thresholdsStyle": {
              "mode": "off"
            }
          },
          "decimals": 0,
          "mappings": [],
          "thresholds": {
            "mode": "absolute",
            "steps": [
              {
                "color": "green",
                "value": null
              },
              {
                "color": "red",
                "value": 80
              }
            ]
          },
          "unit": "ns",
          "unitScale": true
        },
        "overrides": []
      },
      "gridPos": {
        "h": 8,
        "w": 12,
        "x": 12,
        "y": 0
      },
      "id": 3,
      "options": {
        "legend": {
          "calcs": [],
          "displayMode": "list",
          "placement": "bottom",
          "showLegend": true
        },
        "tooltip": {
          "mode": "single",
          "sort": "none"
        }
      },
      "targets": [
        {
          "datasource": {
            "type": "prometheus",
            "uid": "PAE45454D0EDB9216"
          },
          "editorMode": "code",
          "expr": "sum(rate(rcc_session_duration_sum{namespace=\"$namespace\"}[1m])) / sum(rate(rcc_session_duration_count{namespace=\"$namespace\"}[1m]))",
          "legendFormat": "request/min",
          "range": true,
          "refId": "A"
        }
      ],
      "title": "Session Duration",
      "type": "timeseries"
    },
    {
      "datasource": {
        "type": "prometheus",
        "uid": "PAE45454D0EDB9216"
      },
      "description": "",
      "fieldConfig": {
        "defaults": {
          "color": {
            "mode": "thresholds"
          },
          "decimals": 0,
          "mappings": [],
          "min": 0,
          "thresholds": {
            "mode": "absolute",
            "steps": [
              {
                "color": "green",
                "value": null
              },
              {
                "color": "red",
                "value": 80
              }
            ]
          },
          "unit": "none",
          "unitScale": true
        },
        "overrides": []
      },
      "gridPos": {
        "h": 8,
        "w": 12,
        "x": 0,
        "y": 8
      },
      "id": 2,
      "options": {
        "minVizHeight": 200,
        "minVizWidth": 200,
        "orientation": "auto",
        "reduceOptions": {
          "calcs": [
            "last"
          ],
          "fields": "",
          "values": false
        },
        "showThresholdLabels": false,
        "showThresholdMarkers": true,
        "sizing": "auto"
      },
      "pluginVersion": "10.3.1",
      "targets": [
        {
          "datasource": {
            "type": "prometheus",
            "uid": "PAE45454D0EDB9216"
          },
          "editorMode": "builder",
          "expr": "rcc_channels_gauge {namespace=\"$namespace\", classifier=\"effective_complete\", container=\"rcc-websocket-service\", service=~\"rcc-websocket-service|dev-rcc-websocket-service|qa-rcc-websocket-service\"}",
          "format": "time_series",
          "hide": false,
          "legendFormat": "Active Channels (Complete)",
          "range": true,
          "refId": "B"
        },
        {
          "datasource": {
            "type": "prometheus",
            "uid": "PAE45454D0EDB9216"
          },
          "disableTextWrap": false,
          "editorMode": "builder",
          "expr": "rcc_channels_gauge {namespace=\"$namespace\", classifier=\"effective\", container=\"rcc-websocket-service\", service=~\"rcc-websocket-service|dev-rcc-websocket-service|qa-rcc-websocket-service\"}",
          "fullMetaSearch": false,
          "hide": false,
          "includeNullMetadata": true,
          "instant": false,
          "legendFormat": "Active Channels",
          "range": true,
          "refId": "C",
          "useBackend": false
        },
        {
          "datasource": {
            "type": "prometheus",
            "uid": "PAE45454D0EDB9216"
          },
          "editorMode": "builder",
          "expr": "rcc_channels_gauge {namespace=\"$namespace\", classifier=\"tmp\",  container=\"rcc-websocket-service\", service=~\"rcc-websocket-service|dev-rcc-websocket-service|qa-rcc-websocket-service\"}",
          "key": "Q-50e4fe80-2ae4-4555-ac6a-ee768951b7f0-0",
          "legendFormat": "Tmp Channels",
          "range": true,
          "refId": "A"
        }
      ],
      "title": "Channels",
      "type": "gauge"
    },
    {
      "datasource": {
        "type": "loki",
        "uid": "P8E80F9AEF21F6940"
      },
      "description": "",
      "fieldConfig": {
        "defaults": {
          "mappings": [],
          "thresholds": {
            "mode": "absolute",
            "steps": [
              {
                "color": "green",
                "value": null
              },
              {
                "color": "red",
                "value": 80
              }
            ]
          },
          "unit": "short",
          "unitScale": true
        },
        "overrides": []
      },
      "gridPos": {
        "h": 8,
        "w": 4,
        "x": 12,
        "y": 8
      },
      "id": 9,
      "options": {
        "colorMode": "value",
        "graphMode": "area",
        "justifyMode": "auto",
        "orientation": "auto",
        "reduceOptions": {
          "calcs": [
            "lastNotNull"
          ],
          "fields": "",
          "values": false
        },
        "showPercentChange": false,
        "textMode": "auto",
        "wideLayout": true
      },
      "pluginVersion": "10.3.1",
      "targets": [
        {
          "datasource": {
            "type": "loki",
            "uid": "P8E80F9AEF21F6940"
          },
          "editorMode": "builder",
          "expr": "{container=\"rcc-websocket-service\", namespace=\"$namespace\"} |= `ChannelCompletedSignal` | json | line_format `{{.message}}` | label_format effective_complete_channel=message",
          "hide": false,
          "legendFormat": "",
          "queryType": "range",
          "refId": "B"
        }
      ],
      "title": "[Interval] Active Channels - complete-",
      "transformations": [
        {
          "id": "calculateField",
          "options": {
            "alias": "effective_complete_channel",
            "binary": {
              "left": "Line",
              "operator": "+",
              "right": "Line"
            },
            "index": {
              "asPercentile": false
            },
            "mode": "binary",
            "reduce": {
              "reducer": "sum"
            },
            "replaceFields": false,
            "unary": {
              "fieldName": "Line",
              "operator": "exp"
            }
          }
        },
        {
          "id": "filterFieldsByName",
          "options": {
            "include": {
              "names": [
                "effective_complete_channel"
              ]
            }
          }
        },
        {
          "id": "reduce",
          "options": {
            "reducers": [
              "distinctCount"
            ]
          }
        }
      ],
      "type": "stat"
    },
    {
      "datasource": {
        "type": "loki",
        "uid": "P8E80F9AEF21F6940"
      },
      "description": "",
      "fieldConfig": {
        "defaults": {
          "mappings": [],
          "thresholds": {
            "mode": "absolute",
            "steps": [
              {
                "color": "green",
                "value": null
              },
              {
                "color": "red",
                "value": 80
              }
            ]
          },
          "unit": "short",
          "unitScale": true
        },
        "overrides": []
      },
      "gridPos": {
        "h": 8,
        "w": 4,
        "x": 16,
        "y": 8
      },
      "id": 10,
      "options": {
        "colorMode": "value",
        "graphMode": "area",
        "justifyMode": "auto",
        "orientation": "auto",
        "reduceOptions": {
          "calcs": [
            "lastNotNull"
          ],
          "fields": "",
          "values": false
        },
        "showPercentChange": false,
        "textMode": "auto",
        "wideLayout": true
      },
      "pluginVersion": "10.3.1",
      "targets": [
        {
          "datasource": {
            "type": "loki",
            "uid": "P8E80F9AEF21F6940"
          },
          "editorMode": "builder",
          "expr": "{container=\"rcc-websocket-service\", namespace=\"$namespace\"} |= `ChannelFirstJoinSignal` | json | line_format `{{.message}}` | label_format effective_channel=message",
          "hide": false,
          "legendFormat": "",
          "queryType": "range",
          "refId": "B"
        }
      ],
      "title": "[Interval] Active Channels ",
      "transformations": [
        {
          "id": "calculateField",
          "options": {
            "alias": "effective_channel",
            "binary": {
              "left": "Line",
              "operator": "+",
              "right": "Line"
            },
            "index": {
              "asPercentile": false
            },
            "mode": "binary",
            "reduce": {
              "reducer": "sum"
            },
            "replaceFields": false,
            "unary": {
              "fieldName": "Line",
              "operator": "exp"
            }
          }
        },
        {
          "id": "filterFieldsByName",
          "options": {
            "include": {
              "names": [
                "effective_channel"
              ]
            }
          }
        },
        {
          "id": "reduce",
          "options": {
            "reducers": [
              "distinctCount"
            ]
          }
        }
      ],
      "type": "stat"
    },
    {
      "datasource": {
        "type": "loki",
        "uid": "P8E80F9AEF21F6940"
      },
      "description": "",
      "fieldConfig": {
        "defaults": {
          "mappings": [],
          "thresholds": {
            "mode": "absolute",
            "steps": [
              {
                "color": "green",
                "value": null
              },
              {
                "color": "red",
                "value": 80
              }
            ]
          },
          "unit": "short",
          "unitScale": true
        },
        "overrides": []
      },
      "gridPos": {
        "h": 8,
        "w": 4,
        "x": 20,
        "y": 8
      },
      "id": 8,
      "options": {
        "colorMode": "value",
        "graphMode": "area",
        "justifyMode": "auto",
        "orientation": "auto",
        "reduceOptions": {
          "calcs": [
            "lastNotNull"
          ],
          "fields": "",
          "values": false
        },
        "showPercentChange": false,
        "textMode": "auto",
        "wideLayout": true
      },
      "pluginVersion": "10.3.1",
      "targets": [
        {
          "datasource": {
            "type": "loki",
            "uid": "P8E80F9AEF21F6940"
          },
          "editorMode": "builder",
          "expr": "{container=\"rcc-websocket-service\", namespace=\"$namespace\"} |= `DefaultChannelSignal` | json | line_format `{{.message}}` | label_format temp_channel=message",
          "hide": false,
          "legendFormat": "",
          "queryType": "range",
          "refId": "B"
        }
      ],
      "title": "[Interval] Tmp Channels",
      "transformations": [
        {
          "id": "calculateField",
          "options": {
            "alias": "tmp_channel",
            "binary": {
              "left": "Line",
              "operator": "+",
              "right": "Line"
            },
            "index": {
              "asPercentile": false
            },
            "mode": "binary",
            "reduce": {
              "reducer": "sum"
            },
            "replaceFields": false,
            "unary": {
              "fieldName": "Line",
              "operator": "exp"
            }
          }
        },
        {
          "id": "filterFieldsByName",
          "options": {
            "include": {
              "names": [
                "tmp_channel"
              ]
            }
          }
        },
        {
          "id": "reduce",
          "options": {
            "reducers": [
              "distinctCount"
            ]
          }
        }
      ],
      "type": "stat"
    },
    {
      "datasource": {
        "type": "loki",
        "uid": "P8E80F9AEF21F6940"
      },
      "description": "",
      "fieldConfig": {
        "defaults": {
          "color": {
            "mode": "thresholds"
          },
          "custom": {
            "align": "auto",
            "cellOptions": {
              "type": "auto"
            },
            "filterable": true,
            "inspect": true
          },
          "mappings": [],
          "thresholds": {
            "mode": "absolute",
            "steps": [
              {
                "color": "green",
                "value": null
              },
              {
                "color": "red",
                "value": 80
              }
            ]
          },
          "unitScale": true
        },
        "overrides": []
      },
      "gridPos": {
        "h": 8,
        "w": 12,
        "x": 0,
        "y": 16
      },
      "id": 7,
      "options": {
        "cellHeight": "sm",
        "footer": {
          "countRows": true,
          "enablePagination": false,
          "fields": "",
          "reducer": [
            "count"
          ],
          "show": true
        },
        "showHeader": true
      },
      "pluginVersion": "10.3.1",
      "targets": [
        {
          "datasource": {
            "type": "loki",
            "uid": "P8E80F9AEF21F6940"
          },
          "editorMode": "builder",
          "expr": "{container=\"rcc-websocket-service\", namespace=\"$namespace\"} |= `GlobalDataTransferSignal`",
          "queryType": "range",
          "refId": "A"
        }
      ],
      "title": "Data Transfers",
      "transformations": [
        {
          "id": "extractFields",
          "options": {
            "format": "json",
            "source": "Line"
          }
        },
        {
          "id": "organize",
          "options": {
            "excludeByName": {
              "@timestamp": true,
              "@version": true,
              "Line": true,
              "id": true,
              "labels": true,
              "level": true,
              "level_value": true,
              "logger": true,
              "logger_name": true,
              "message": true,
              "rcc.wss.anonymized_fingerprint": true,
              "rcc.wss.anonymized_fingerprint_0": true,
              "rcc.wss.anonymized_fingerprint_1": true,
              "rcc.wss.remote_address": true,
              "rcc.wss.remote_address_0": true,
              "rcc.wss.remote_address_1": true,
              "rcc.wss.user_agent": true,
              "rcc.wss.user_agent_0": true,
              "rcc.wss.user_agent_1": true,
              "thread": true,
              "thread_name": true,
              "tsNs": true
            },
            "includeByName": {},
            "indexByName": {
              "@timestamp": 10,
              "@version": 11,
              "Line": 6,
              "Time": 5,
              "id": 8,
              "labels": 4,
              "level": 9,
              "level_value": 14,
              "logger_name": 12,
              "message": 3,
              "rcc.wss.channel": 2,
              "rcc.wss.origin_0": 0,
              "rcc.wss.origin_1": 1,
              "thread_name": 13,
              "tsNs": 7
            },
            "renameByName": {}
          }
        }
      ],
      "type": "table"
    },
    {
      "datasource": {
        "type": "loki",
        "uid": "P8E80F9AEF21F6940"
      },
      "description": "",
      "fieldConfig": {
        "defaults": {
          "custom": {
            "align": "auto",
            "cellOptions": {
              "type": "auto"
            },
            "filterable": true,
            "inspect": true
          },
          "mappings": [],
          "thresholds": {
            "mode": "absolute",
            "steps": [
              {
                "color": "green",
                "value": null
              },
              {
                "color": "red",
                "value": 80
              }
            ]
          },
          "unitScale": true
        },
        "overrides": []
      },
      "gridPos": {
        "h": 8,
        "w": 12,
        "x": 12,
        "y": 16
      },
      "id": 6,
      "options": {
        "cellHeight": "sm",
        "footer": {
          "countRows": true,
          "enablePagination": false,
          "fields": [],
          "reducer": [
            "count"
          ],
          "show": true
        },
        "showHeader": true
      },
      "pluginVersion": "10.3.1",
      "targets": [
        {
          "datasource": {
            "type": "loki",
            "uid": "P8E80F9AEF21F6940"
          },
          "editorMode": "builder",
          "expr": "{container=\"rcc-websocket-service\", namespace=\"$namespace\"} |= `ChannelCompletedSignal`",
          "queryType": "range",
          "refId": "A"
        }
      ],
      "title": "Complete Channels",
      "transformations": [
        {
          "id": "extractFields",
          "options": {
            "format": "json",
            "source": "Line"
          }
        },
        {
          "id": "organize",
          "options": {
            "excludeByName": {
              "@timestamp": true,
              "@version": true,
              "Line": true,
              "id": true,
              "labels": true,
              "level": true,
              "level_value": true,
              "logger": true,
              "logger_name": true,
              "message": true,
              "rcc.wss.anonymized_fingerprint": true,
              "rcc.wss.anonymized_fingerprint_0": true,
              "rcc.wss.anonymized_fingerprint_1": true,
              "rcc.wss.origin_1": false,
              "rcc.wss.remote_address": true,
              "rcc.wss.remote_address_0": true,
              "rcc.wss.remote_address_1": true,
              "rcc.wss.user_agent": true,
              "rcc.wss.user_agent_0": true,
              "rcc.wss.user_agent_1": true,
              "thread": true,
              "thread_name": true,
              "tsNs": true
            },
            "includeByName": {},
            "indexByName": {
              "@timestamp": 10,
              "@version": 11,
              "Line": 6,
              "Time": 5,
              "id": 8,
              "labels": 4,
              "level": 9,
              "level_value": 14,
              "logger_name": 12,
              "message": 3,
              "rcc.wss.channel": 2,
              "rcc.wss.origin_0": 0,
              "rcc.wss.origin_1": 1,
              "thread_name": 13,
              "tsNs": 7
            },
            "renameByName": {}
          }
        }
      ],
      "type": "table"
    },
    {
      "datasource": {
        "type": "loki",
        "uid": "P8E80F9AEF21F6940"
      },
      "description": "",
      "gridPos": {
        "h": 10,
        "w": 24,
        "x": 0,
        "y": 24
      },
      "id": 1,
      "options": {
        "dedupStrategy": "none",
        "enableLogDetails": true,
        "prettifyLogMessage": false,
        "showCommonLabels": false,
        "showLabels": false,
        "showTime": true,
        "sortOrder": "Ascending",
        "wrapLogMessage": true
      },
      "pluginVersion": "9.5.3",
      "targets": [
        {
          "datasource": {
            "type": "loki",
            "uid": "P8E80F9AEF21F6940"
          },
          "editorMode": "builder",
          "expr": "{container=\"rcc-websocket-service\", namespace=\"$namespace\"} |= `` | json | line_format `{{.level}} {{.message}}`",
          "queryType": "range",
          "refId": "A"
        }
      ],
      "title": "Logs",
      "transformations": [
        {
          "id": "extractFields",
          "options": {
            "format": "json",
            "source": "Line"
          }
        }
      ],
      "type": "logs"
    }
  ],
  "refresh": "",
  "schemaVersion": 39,
  "tags": [],
  "templating": {
    "list": [
      {
        "current": {
          "selected": false,
          "text": "prod-services",
          "value": "prod-services"
        },
        "datasource": {
          "type": "prometheus",
          "uid": "PAE45454D0EDB9216"
        },
        "definition": "label_values(namespace)",
        "hide": 0,
        "includeAll": false,
        "label": "Namespace",
        "multi": false,
        "name": "namespace",
        "options": [],
        "query": {
          "query": "label_values(namespace)",
          "refId": "PrometheusVariableQueryEditor-VariableQuery"
        },
        "refresh": 1,
        "regex": "\\b(?:prod|dev|qa)-services\\b",
        "skipUrlSync": false,
        "sort": 0,
        "type": "query"
      }
    ]
  },
  "time": {
    "from": "now/w",
    "to": "now/w"
  },
  "timepicker": {},
  "timezone": "",
  "title": "RCC Websocket Service (General) v0.0.7",
  "uid": "c54dce22-40e9-49a5-b599-9213be2a371f",
  "version": 11,
  "weekStart": ""
}
